^C:\USERS\MIHAI\DESKTOP\PROJECT-SMC\SERVER\DATABASE.CPP
/c /ZI /JMC /nologo /W3 /WX- /diagnostics:column /sdl /Od /D _CRT_SECURE_NO_WARNINGS /Gm- /EHsc /RTC1 /MDd /GS /fp:precise /permissive- /Zc:wchar_t /Zc:forScope /Zc:inline /std:c++17 /Fo"X64\DEBUG\\" /Fd"X64\DEBUG\VC142.PDB" /external:W3 /Gd /TP /FC C:\USERS\MIHAI\DESKTOP\PROJECT-SMC\SERVER\DATABASE.CPP
^C:\USERS\MIHAI\DESKTOP\PROJECT-SMC\SERVER\SERVER.CPP
/c /ZI /JMC /nologo /W3 /WX- /diagnostics:column /sdl /Od /D _CRT_SECURE_NO_WARNINGS /Gm- /EHsc /RTC1 /MDd /GS /fp:precise /permissive- /Zc:wchar_t /Zc:forScope /Zc:inline /std:c++17 /Fo"X64\DEBUG\\" /Fd"X64\DEBUG\VC142.PDB" /external:W3 /Gd /TP /FC C:\USERS\MIHAI\DESKTOP\PROJECT-SMC\SERVER\SERVER.CPP
^C:\USERS\MIHAI\DESKTOP\PROJECT-SMC\SERVER\TCPSOCKET.CPP
/c /ZI /JMC /nologo /W3 /WX- /diagnostics:column /sdl /Od /D _CRT_SECURE_NO_WARNINGS /Gm- /EHsc /RTC1 /MDd /GS /fp:precise /permissive- /Zc:wchar_t /Zc:forScope /Zc:inline /std:c++17 /Fo"X64\DEBUG\\" /Fd"X64\DEBUG\VC142.PDB" /external:W3 /Gd /TP /FC C:\USERS\MIHAI\DESKTOP\PROJECT-SMC\SERVER\TCPSOCKET.CPP
^C:\USERS\MIHAI\DESKTOP\PROJECT-SMC\SERVER\UTILS.CPP
/c /ZI /JMC /nologo /W3 /WX- /diagnostics:column /sdl /Od /D _CRT_SECURE_NO_WARNINGS /Gm- /EHsc /RTC1 /MDd /GS /fp:precise /permissive- /Zc:wchar_t /Zc:forScope /Zc:inline /std:c++17 /Fo"X64\DEBUG\\" /Fd"X64\DEBUG\VC142.PDB" /external:W3 /Gd /TP /FC C:\USERS\MIHAI\DESKTOP\PROJECT-SMC\SERVER\UTILS.CPP
^C:\USERS\MIHAI\DESKTOP\PROJECT-SMC\SERVER\SQLITE3.C
/c /ZI /JMC /nologo /W3 /WX- /diagnostics:column /sdl /Od /D _CRT_SECURE_NO_WARNINGS /Gm- /EHsc /RTC1 /MDd /GS /fp:precise /permissive- /Zc:wchar_t /Zc:forScope /Zc:inline /Fo"X64\DEBUG\\" /Fd"X64\DEBUG\VC142.PDB" /external:W3 /Gd /TC /FC C:\USERS\MIHAI\DESKTOP\PROJECT-SMC\SERVER\SQLITE3.C
